…
> dge_errors[1:10]

 106480547  100873672  100873326  106481046  106479697  106480905  106480310  106479086  106479870  106481303 
0.30921224 0.06602058 0.16943733 0.13573124 0.09815172 0.28805994 0.77680608 0.00000000 0.77967968 0.46749132 

```
```r

> recon2_2_db

`reactDB` object with 7785 reactions and 4742 gene - reaction association rules

# A tibble: 7,785 × 6
   id                name                                                    subsystem         gene_association entrez_id exprs     
 * <chr>             <chr>                                                   <chr>             <chr>            <list>    <named li>
 1 R_13DAMPPOX       1,3-Diaminopropane:oxygen oxidoreductase (deaminating)  beta-Alanine met… 314 or 8639 or … <chr [3]> <language>
 2 R_1a_24_25VITD2Hm 1-alpha-Vitamin D-24,25-hydroxylase (D2)                Vitamin D metabo… NA               <NULL>    <NULL>    
 3 R_1a_24_25VITD3Hm 1-alpha-Vitamin D-24,25-hydroxylase (D3)                Vitamin D metabo… NA               <NULL>    <NULL>    
 4 R_1a_25VITD2Hm    1-alpha,24R,25-Vitamin D-hydroxylase (D2)               Vitamin D metabo… NA               <NULL>    <NULL>    
 5 R_1a_25VITD3Hm    1-alpha,24R,25-Vitamin D-hydroxylase (D3)               Vitamin D metabo… NA               <NULL>    <NULL>    
 6 R_1PPDCRp         delta1-piperideine-2-carboxylate reductase, perixosomal Lysine metabolism NA               <NULL>    <NULL>    
 7 R_24_25VITD2Hm    24R-Vitamin D-25-hydroxylase (D2)                       Vitamin D metabo… 1591             <chr [1]> <sym>     
 8 R_24_25VITD3Hm    24R-Vitamin D-25-hydroxylase (D3)                       Vitamin D metabo… 1591             <chr [1]> <sym>     
 9 R_25VITD2Hm       1-alpha-Vitamin D-25-hydroxylase (D2)                   Vitamin D metabo… 1594             <chr [1]> <sym>     
10 R_25VITD3Hm       1-alpha-Vitamin D-25-hydroxylase (D3)                   Vitamin D metabo… 1594             <chr [1]> <sym>     
# ℹ 7,775 more rows
# ℹ Use `print(n = ...)` to see more rows
…
* `reg`: a data frame with fold-regulation estimates and their inference statistics 
on identity scale, raw p-values and p-values corrected for multiple testing with 
the FDR method (false discovery rate). This data is annotated with reaction names 
and Recon metabolic subsystems

* `mc`: an optional numeric matrix returned only if `return_mc = TRUE` with 
estimates of fold-regulation of reaction activity in particular iterations of the 
simulation algorithm

```r
> reaction_regulation

`actiData` object with activity estimates of 4742 in 94 subsystems

# A tibble: 4,742 × 9
   id             name                                                subsystem fold_reg  error lower_ci upper_ci p_value p_adjusted
   <chr>          <chr>                                               <chr>        <dbl>  <dbl>    <dbl>    <dbl>   <dbl>      <dbl>
 1 R_13DAMPPOX    1,3-Diaminopropane:oxygen oxidoreductase (deaminat… beta-Ala…    1.46  0.130     1.26     1.80   0.0005   0.000797
 2 R_24_25VITD2Hm 24R-Vitamin D-25-hydroxylase (D2)                   Vitamin …    2.37  0.763     1.35     4.54   0.003    0.00438 
 3 R_24_25VITD3Hm 24R-Vitamin D-25-hydroxylase (D3)                   Vitamin …    2.37  0.763     1.35     4.54   0.003    0.00438 
 4 R_25VITD2Hm    1-alpha-Vitamin D-25-hydroxylase (D2)               Vitamin …    0.724 0.0583    0.617    0.850  0.0005   0.000797
 5 R_25VITD3Hm    1-alpha-Vitamin D-25-hydroxylase (D3)               Vitamin …    0.724 0.0583    0.617    0.850  0.0005   0.000797
 6 R_2AMACHYD     2-Aminoacrylate hydrolysis                          Glycine,…    1.91  0.204     1.57     2.37   0.0005   0.000797
 7 R_2AMACSULT    2-Aminoacrylate sulfotransferase                    Methioni…    0.961 0.332     0.536    1.93   0.384    0.412   
 8 R_2HBO         2-Hydroxybutyrate:NAD+ oxidoreductase               Propanoa…    0.975 0.140     0.793    1.36   0.363    0.391   
 9 R_2OXOADOXm    2-Oxoadipate:lipoamde 2-oxidoreductase(decarboxyla… Lysine m…    0.916 0.0225    0.871    0.958  0.0005   0.000797
10 R_34DHOXPEGOX  3,4-Dihydroxyphenylethyleneglycol:NAD+ oxidoreduct… Tyrosine…    2.19  0.520     1.52     3.90   0.0005   0.000797
# ℹ 4,732 more rows
# ℹ Use `print(n = ...)` to see more rows
…
```

Briefly inspected, our `actiData()` has now columns with $log_2$-transformed statistics, 
a columns storing the differential regulation status of metabolic reactions: 

```r

>   reaction_regulation
`actiData` object with activity estimates of 4742 in 94 subsystems

# A tibble: 4,742 × 17
   id      name  subsystem fold_reg  error lower_ci upper_ci p_value p_adjusted log2_fold_reg log2_error log2_lower_ci log2_upper_ci
   <chr>   <chr> <chr>        <dbl>  <dbl>    <dbl>    <dbl>   <dbl>      <dbl>         <dbl>      <dbl>         <dbl>         <dbl>
 1 R_13DA… 1,3-… beta-Ala…    1.46  0.130     1.26     1.80   0.0005   0.000797        0.547      -2.94          0.331        0.848 
 2 R_24_2… 24R-… Vitamin …    2.37  0.763     1.35     4.54   0.003    0.00438         1.24       -0.391         0.437        2.18  
 3 R_24_2… 24R-… Vitamin …    2.37  0.763     1.35     4.54   0.003    0.00438         1.24       -0.391         0.437        2.18  
 4 R_25VI… 1-al… Vitamin …    0.724 0.0583    0.617    0.850  0.0005   0.000797       -0.466      -4.10         -0.696       -0.235 
 5 R_25VI… 1-al… Vitamin …    0.724 0.0583    0.617    0.850  0.0005   0.000797       -0.466      -4.10         -0.696       -0.235 
 6 R_2AMA… 2-Am… Glycine,…    1.91  0.204     1.57     2.37   0.0005   0.000797        0.935      -2.29          0.651        1.25  
 7 R_2AMA… 2-Am… Methioni…    0.961 0.332     0.536    1.93   0.384    0.412          -0.0572     -1.59         -0.898        0.950 
 8 R_2HBO  2-Hy… Propanoa…    0.975 0.140     0.793    1.36   0.363    0.391          -0.0362     -2.83         -0.335        0.447 
 9 R_2OXO… 2-Ox… Lysine m…    0.916 0.0225    0.871    0.958  0.0005   0.000797       -0.126      -5.48         -0.199       -0.0614
10 R_34DH… 3,4-… Tyrosine…    2.19  0.520     1.52     3.90   0.0005   0.000797        1.13       -0.944         0.603        1.96  
# ℹ 4,732 more rows
# ℹ 4 more variables: p_type <chr>, p_cutoff <dbl>, fold_cutoff <dbl>, regulation <fct>
# ℹ Use `print(n = ...)` to see more rows
…
The result is a data frame with information on the tested reaction set 
(`reaction_set`: significantly activated or inhibited reactions), total number of 
reaction in the activated or inhibited reaction set (`n_total_reaction_set`), 
subsystem (`subsystem`), total number of reactions in the subsystem (`n_total_subsystem`), 
number of significantly activated or inhibited reaction in the subsystem (`n_intersect`). 
Magnitude of enrichment in the activated or inhibited reaction set as compared with 
the reaction pool is metered with odds ratio (OR, `or`) statistic with its confidence 
intervals (`lower_ci` and `upper_ci`).  
Finally the function returns raw p-values (`p_value`) and p-values corrected for 
multiple tests with the FDR method (`p_adjusted`): 

```r
>  subsystem_enrichment

# A tibble: 188 × 10
   reaction_set n_total_reaction_set subsystem              n_total_subsystem n_intersect    or lower_ci upper_ci p_value p_adjusted
   <fct>                       <dbl> <chr>                              <dbl>       <dbl> <dbl>    <dbl>    <dbl>   <dbl>      <dbl>
 1 activated                    1711 Alanine and aspartate…                11           5 1.39     0.857     6     0.355     0.495  
 2 activated                    1711 Alkaloid synthesis                     3           1 1.16     0.667     2     0.732     0.740  
 3 activated                    1711 Aminosugar metabolism                 25           7 0.857    0.571     1.6   0.268     0.427  
 4 activated                    1711 Androgen and estrogen…                31           6 0.607    0.438     1.17  0.036     0.094  
 5 activated                    1711 Arachidonic acid meta…                41          10 0.721    0.5       1.1   0.0725    0.162  
 6 activated                    1711 Arginine and Proline …                29          10 1.01     0.733     2.2   0.636     0.665  
 7 activated                    1711 beta-Alanine metaboli…                11           3 0.906    0.571     4     0.380     0.508  
 8 activated                    1711 Bile acid synthesis                   94          34 1.02     0.813     1.35  0.526     0.589  
 9 activated                    1711 Biotin metabolism                      8           0 0.297    0.167     1     0.026     0.0698 
10 activated                    1711 Blood group synthesis                 45          29 1.82     1.36      3     0.0005    0.00276
# ℹ 178 more rows
# ℹ Use `print(n = ...)` to see more rows
…
To explore these significantly enriched metabolic subsystems, we can tally 
their differentially regulated reactions by selecting the subsystems of interest 
in the `actiData` object and counting the differentially regulated reactions. 
To this end, we'll use functions `select()` and `count_regulated()`: 

```r

  reaction_regulation %>%
      select(subsystems = significant_subsystems$subsystem) %>%
      count_regulated

```
```r
# A tibble: 34 × 5
   regulation     n n_total percent subsystem                      
   <fct>      <int>   <int>   <dbl> <chr>                          
 1 activated    158     427   37.0  all                            
 2 inhibited    238     427   55.7  all                            
 3 activated      0       8    0    Biotin metabolism              
 4 inhibited      8       8  100    Biotin metabolism              
 5 activated      4      47    8.51 Cholesterol metabolism         
 6 inhibited     37      47   78.7  Cholesterol metabolism         
 7 activated      6      34   17.6  Chondroitin sulfate degradation
 8 inhibited     28      34   82.4  Chondroitin sulfate degradation
 9 activated     33      42   78.6  Chondroitin synthesis          
10 inhibited      3      42    7.14 Chondroitin synthesis          
# ℹ 24 more rows
# ℹ Use `print(n = ...)` to see more rows
```
…
